<?xml version="1.0" encoding="utf-8"?>
<!-- Generator: Adobe Illustrator 21.1.0, SVG Export Plug-In . SVG Version: 6.00 Build 0)  -->
<svg version="1.1" id="Слой_1" xmlns="http://www.w3.org/2000/svg" xmlns:xlink="http://www.w3.org/1999/xlink" x="0px" y="0px"
	 viewBox="0 0 6 13" style="enable-background:new 0 0 6 13;" xml:space="preserve">
<style type="text/css">
	.st0{fill:#333333;}
</style>
<path class="st0" d="M6,4.2H4V2.9c0-0.5,0.3-0.6,0.6-0.6c0.2,0,1.4,0,1.4,0V0L4,0C1.8,0,1.3,1.7,1.3,2.7v1.5H0v2.3h1.3
	c0,2.9,0,6.5,0,6.5H4c0,0,0-3.6,0-6.5h1.8L6,4.2z"/>
</svg>
