<?xml version="1.0" encoding="UTF-8"?>
<!-- Generator: Adobe Illustrator 16.0.0, SVG Export Plug-In . SVG Version: 6.00 Build 0)  -->
<!DOCTYPE svg PUBLIC "-//W3C//DTD SVG 1.1//EN" "http://www.w3.org/Graphics/SVG/1.1/DTD/svg11.dtd">
<svg version="1.1" id="Слой_1" xmlns="http://www.w3.org/2000/svg" xmlns:xlink="http://www.w3.org/1999/xlink" x="0px" y="0px" width="103.463px" height="25.001px" viewBox="43.297 0.445 103.463 25.001" enable-background="new 43.297 0.445 103.463 25.001" xml:space="preserve">
<path fill="#3B5998" d="M52.178,25.445h-6.567V13.878h-2.313V7.982h2.313V6.191c0-2.687,1.493-5.746,5.746-5.746h4.479v5.746h-3.508  c-0.074,0-0.074,0-0.074,0s0,0.076,0,0.225v1.493h3.73l-0.597,5.97h-3.135v11.567L52.178,25.445L52.178,25.445z M47.402,23.654  h2.985V12.012h3.356l0.226-2.313h-3.582V6.415c0-1.417,0.97-2.015,1.939-2.015h1.717V2.236h-2.688c-3.582,0-3.955,2.761-3.955,3.955  v3.582h-2.313v2.313h2.313L47.402,23.654L47.402,23.654z"/>
<g>
	<path d="M69.179,16.725V9.485h-4.907v7.239h-0.783V8.849h6.474v7.875H69.179z"/>
	<path d="M76.062,8.653c2.25,0,3.832,1.712,3.832,4.142c0,2.414-1.582,4.125-3.832,4.125c-2.251,0-3.849-1.712-3.849-4.125   C72.213,10.365,73.811,8.653,76.062,8.653z M76.062,16.269c1.776,0,3.049-1.435,3.049-3.473c0-2.055-1.272-3.489-3.049-3.489   c-1.793,0-3.05,1.434-3.05,3.489C73.012,14.834,74.269,16.269,76.062,16.269z"/>
	<path d="M80.89,16.089h0.521c0.604-1.125,0.896-2.445,0.896-3.945V8.849h5.61v7.24h1.043v3.245h-0.733v-2.609h-6.604v2.609H80.89   V16.089z M87.217,9.485H83.01v2.707c0,1.468-0.245,2.771-0.783,3.896h4.99V9.485z"/>
	<path d="M93.969,8.653c2.021,0,3.425,1.631,3.425,3.979v0.326h-6.327c0.065,1.974,1.386,3.343,3.245,3.343   c0.733,0,1.565-0.228,2.43-0.685l0.261,0.57c-0.963,0.506-1.94,0.734-2.771,0.734c-2.3,0-3.946-1.712-3.946-4.125   C90.285,10.365,91.801,8.653,93.969,8.653z M91.067,12.42h5.577c-0.033-1.859-1.109-3.131-2.675-3.131   C92.339,9.29,91.181,10.546,91.067,12.42z"/>
	<path d="M106.053,16.725h-0.75V9.485h-4.206v4.989c0,1.55-0.783,2.446-2.088,2.446c-0.229,0-0.489-0.017-0.767-0.065l0.082-0.652   c0.244,0.032,0.44,0.049,0.603,0.049c0.913,0,1.419-0.619,1.419-1.826V8.849h5.707V16.725z"/>
	<path d="M108.909,8.849h0.734v6.816l4.973-6.816h0.767v7.875h-0.734V9.909l-4.956,6.815h-0.783V8.849z"/>
	<path d="M123.749,9.485h-2.837v7.239h-0.783V9.485h-2.838V8.849h6.458V9.485z"/>
	<path d="M125.641,8.849h0.734v3.229h2.658c1.418,0,2.462,0.929,2.462,2.316c0,1.402-1.028,2.331-2.462,2.331h-3.393V8.849z    M126.375,16.105h2.56c1.076,0,1.826-0.685,1.826-1.712c0-1.012-0.767-1.696-1.843-1.696h-2.543V16.105z"/>
	<path d="M136.829,8.653c0.913,0,1.81,0.293,2.643,0.881l-0.343,0.554c-0.701-0.505-1.436-0.767-2.218-0.767   c-1.811,0-3.099,1.418-3.099,3.474c0,2.039,1.288,3.457,3.099,3.457c0.782,0,1.517-0.261,2.218-0.767l0.343,0.571   c-0.833,0.57-1.729,0.864-2.643,0.864c-2.234,0-3.815-1.712-3.815-4.125C133.013,10.365,134.594,8.653,136.829,8.653z"/>
	<path d="M146.76,16.725h-0.733v-3.196h-2.12l-2.234,3.196h-0.848l2.315-3.294c-1.206-0.146-2.021-1.076-2.021-2.25   c0-1.353,1.026-2.332,2.479-2.332h3.163V16.725z M146.027,9.469h-2.316c-1.092,0-1.842,0.701-1.842,1.729   c0,1.027,0.75,1.728,1.842,1.728h2.316V9.469z"/>
</g>
</svg>